小章鱼的blog
…
ggplot(data = mpg) + 
  geom_point(mapping = aes(x = displ, y = hwy, size = class))
说明:
mpg是这个包中自带的一份数据，这个数据是美国环境保护局对于38种车型的统计数据

mpg
#> # A tibble: 234 × 11
#>   manufacturer model displ  year   cyl      trans   drv   cty   hwy    fl
#>          <chr> <chr> <dbl> <int> <int>      <chr> <chr> <int> <int> <chr>
#> 1         audi    a4   1.8  1999     4   auto(l5)     f    18    29     p
#> 2         audi    a4   1.8  1999     4 manual(m5)     f    21    29     p
#> 3         audi    a4   2.0  2008     4 manual(m6)     f    20    31     p
#> 4         audi    a4   2.0  2008     4   auto(av)     f    21    30     p
#> 5         audi    a4   2.8  1999     6   auto(l5)     f    16    26     p
#> 6         audi    a4   2.8  1999     6 manual(m5)     f    18    26     p
#> # ... with 228 more rows, and 1 more variables: class <chr>
…
